Project 1: Wrangling, Exploration, Visualization
…
The graph displays all of the different paint touches the team at in a play for the entire season. The N/A column represents that the team had around 1000 plays where there was no paint touch recorded on the play. When the team had a paint touch the highest type was perimeter drives with around 550 attempts on the year. Post-ups on the block were the lowest frequency with only around 25 attempts. This graph is a good illustration of how Texas basketball team is getting into the paint.

totpoint <- data %>% select(SHOOTER, SHOT.TYPE, POINT.RESULT, 
    PLAY.RESULT) %>% filter(SHOOTER != "N/A") %>% group_by(SHOOTER, 
    SHOT.TYPE) %>% summarize(total_points = sum(POINT.RESULT))
totpoint[is.na(totpoint)] <- 0
totpoint

## # A tibble: 87 x 3
## # Groups:   SHOOTER [14]
##    SHOOTER          SHOT.TYPE           total_points
##    <chr>            <chr>                      <dbl>
##  1 0 Gerald Liddell Catch-and-shoot                9
##  2 0 Gerald Liddell Dunk                           2
##  3 0 Gerald Liddell Layup                          4
##  4 0 Gerald Liddell Off-the-dribble (2)            0
##  5 0 Gerald Liddell Off-the-dribble (3)            1
##  6 1 Andrew Jones   Catch-and-shoot              107
##  7 1 Andrew Jones   Dunk                          15
##  8 1 Andrew Jones   Floater/Runner                19
##  9 1 Andrew Jones   Free Throws                   17
## 10 1 Andrew Jones   Halfcourt Shot                 0
## #  with 77 more rows
…
